semestr_1/AVMS/Quartus/LAB_4_2/simulation/qsim/LAB_4_2.msim.vcd
$comment
	File created using the following command:
		vcd file LAB_4_2.msim.vcd -direction
$end
$date
	Mon Dec 18 16:10:22 2023
$end
$version
	ModelSim Version 10.1d
$end
$timescale
	1ps
$end
$scope module LAB_4_2_vlg_vec_tst $end
$var reg 1 ! a $end
$var reg 1 " b $end
$var reg 1 # clock $end
$var wire 1 $ q [3] $end
$var wire 1 % q [2] $end
$var wire 1 & q [1] $end
$var wire 1 ' q [0] $end
$var wire 1 ( sampler $end
$scope module i1 $end
$var wire 1 ) gnd $end
$var wire 1 * vcc $end
$var wire 1 + unknown $end
$var tri1 1 , devclrn $end
$var tri1 1 - devpor $end
$var tri1 1 . devoe $end
$var wire 1 / clock~combout $end
$var wire 1 0 a~combout $end
$var wire 1 1 newq[1]~7_combout $end
$var wire 1 2 b~combout $end
$var wire 1 3 newq[1]~6_combout $end
$var wire 1 4 newq[3]~12_combout $end
$var wire 1 5 newq[1]~5_combout $end
$var wire 1 6 newq[2]~10_combout $end
$var wire 1 7 newq[2]~4_combout $end
$var wire 1 8 newq[2]~9_combout $end
$var wire 1 9 newq[0]~14_combout $end
$var wire 1 : tq [3] $end
$var wire 1 ; tq [2] $end
$var wire 1 < tq [1] $end
$var wire 1 = tq [0] $end
$upscope $end
$upscope $end
$enddefinitions $end
#0
$dumpvars
0!
0"
0#
0'
0&
0%
0$
x(
0)
1*
x+
1,
1-
1.
0/
00
11
02
03
04
05
06
17
18
19
0=
0<
0;
0:
$end
#10000
1#
1/
0(
1=
1;
1:
1<
09
07
08
01
15
14
1'
1%
1$
1&
#20000
0#
0/
1(
#30000
1#
1/
0(
0=
0;
0'
0%
#40000
0#
0/
1(
#50000
1#
1/
0(
1;
19
1%
#60000
0#
0/
1(
#70000
1#
1/
0(
0;
0:
17
05
04
0%
0$
#80000
0#
0/
1(
#90000
1#
1/
0(
1=
1:
0<
07
14
11
18
1'
1$
0&
08
#100000
0#
0/
1(
#110000
1#
1/
0(
0:
09
04
0$
#120000
0#
0/
1(
#130000
1#
1/
0(
0=
1:
14
0'
1$
#140000
0#
0/
1(
#150000
1#
1/
0(
1<
15
01
1&
#160000
0#
0/
1(
#170000
1#
1/
0(
1;
19
1%
#180000
0#
0/
1(
#190000
1#
1/
0(
0;
0:
17
05
04
0%
0$
#200000
0#
0/
1(
#210000
1#
1/
0(
1=
1:
0<
07
14
11
18
1'
1$
0&
08
#220000
0#
0/
1(
#230000
1!
1#
10
1/
0(
0:
09
04
0$
#240000
0#
0/
1(
#250000
1#
1/
0(
0=
1:
14
0'
1$
#260000
0#
0/
1(
#270000
1#
1/
0(
1<
15
01
1&
#280000
0#
0/
1(
#290000
1#
1/
0(
1;
19
1%
#300000
0#
0/
1(
#310000
1#
1/
0(
0;
0:
17
05
04
0%
0$
#320000
0#
0/
1(
#330000
1#
1/
0(
1=
1:
0<
07
14
11
18
1'
1$
0&
08
#340000
0#
0/
1(
#350000
1#
1/
0(
0:
09
04
0$
#360000
0#
0/
1(
#370000
1#
1/
0(
0=
1:
14
0'
1$
#380000
0#
0/
1(
#390000
1#
1/
0(
1<
15
01
1&
#400000
0#
0/
1(
#410000
1#
1/
0(
1;
19
1%
#420000
0#
0/
1(
#430000
1#
1/
0(
0;
0:
17
05
04
0%
0$
#440000
0#
0/
1(
#450000
1#
1/
0(
1=
1:
0<
07
14
11
18
1'
1$
0&
08
#460000
1"
0!
0#
12
00
0/
1(
#470000
1#
1/
0(
0:
09
04
0$
#480000
0#
0/
1(
#490000
1#
1/
0(
0=
1:
14
0'
1$
#500000
0#
0/
1(
#510000
1#
1/
0(
1<
15
01
1&
#520000
0#
0/
1(
#530000
1#
1/
0(
1;
19
1%
#540000
0#
0/
1(
#550000
1#
1/
0(
0;
0:
17
05
0%
0$
#560000
0#
0/
1(
#570000
1#
1/
0(
1=
1:
0<
07
11
18
1'
1$
0&
08
#580000
0#
0/
1(
#590000
1#
1/
0(
0:
09
04
0$
#600000
0#
0/
1(
#610000
1#
1/
0(
0=
1:
14
0'
1$
#620000
0#
0/
1(
#630000
1#
1/
0(
1<
15
01
1&
#640000
0#
0/
1(
#650000
1#
1/
0(
1;
19
1%
#660000
0#
0/
1(
#670000
1#
1/
0(
0;
0:
17
05
0%
0$
#680000
0#
0/
1(
#690000
1!
1#
10
1/
0(
1=
1:
0<
07
11
18
1'
1$
0&
08
#700000
0#
0/
1(
#710000
1#
1/
0(
0:
09
04
0$
#720000
0#
0/
1(
#730000
1#
1/
0(
0=
1:
14
0'
1$
#740000
0#
0/
1(
#750000
1#
1/
0(
1<
15
01
1&
#760000
0#
0/
1(
#770000
1#
1/
0(
1;
19
1%
#780000
0#
0/
1(
#790000
1#
1/
0(
0;
0:
17
05
0%
0$
#800000
0#
0/
1(
#810000
1#
1/
0(
1=
1:
0<
07
11
18
1'
1$
0&
08
#820000
0#
0/
1(
#830000
1#
1/
0(
0:
09
04
0$
#840000
0#
0/
1(
#850000
1#
1/
0(
0=
1:
14
0'
1$
#860000
0#
0/
1(
#870000
1#
1/
0(
1<
15
01
1&
#880000
0#
0/
1(
#890000
1#
1/
0(
1;
19
1%
#900000
0#
0/
1(
#910000
1#
1/
0(
0;
0:
17
05
0%
0$
#920000
0"
0!
0#
02
00
0/
1(
04
#930000
1#
1/
0(
1=
1:
0<
07
14
11
18
1'
1$
0&
08
#940000
0#
0/
1(
#950000
1#
1/
0(
0:
09
04
0$
#960000
0#
0/
1(
#970000
1#
1/
0(
0=
1:
14
0'
1$
#980000
0#
0/
1(
#990000
1#
1/
0(
1<
15
01
1&
