AVMS/Quartus/LAB_2_2/simulation/qsim/LAB_2_2.msim.vcd
$comment
	File created using the following command:
		vcd file LAB_2_2.msim.vcd -direction
$end
$date
	Mon Nov 20 12:07:36 2023
$end
$version
	ModelSim Version 10.1d
$end
$timescale
	1ps
$end
$scope module LAB_2_2_vlg_vec_tst $end
$var reg 1 ! a0 $end
$var reg 1 " a1 $end
$var reg 1 # a2 $end
$var reg 1 $ b0 $end
$var reg 1 % b1 $end
$var reg 1 & b2 $end
$var wire 1 ' y $end
$var wire 1 ( sampler $end
$scope module i1 $end
$var wire 1 ) gnd $end
$var wire 1 * vcc $end
$var wire 1 + unknown $end
$var tri1 1 , devclrn $end
$var tri1 1 - devpor $end
$var tri1 1 . devoe $end
$var wire 1 / y~output_o $end
$var wire 1 0 a2~input_o $end
$var wire 1 1 b2~input_o $end
$var wire 1 2 a0~input_o $end
$var wire 1 3 a1~input_o $end
$var wire 1 4 b0~input_o $end
$var wire 1 5 b1~input_o $end
$var wire 1 6 y~0_combout $end
$var wire 1 7 y~1_combout $end
$upscope $end
$upscope $end
$enddefinitions $end
#0
$dumpvars
0!
0"
0#
0$
0%
0&
0'
x(
0)
1*
x+
1,
1-
1.
0/
00
01
02
03
04
05
06
07
$end
#10000
1&
11
0(
17
1/
1'
#20000
1%
0&
15
01
1(
16
07
0/
0'
17
1/
1'
#30000
1&
11
0(
#40000
1$
0%
0&
14
05
01
1(
#50000
1&
11
0(
#60000
1%
0&
15
01
1(
#70000
1&
11
0(
#80000
1#
0$
0%
0&
10
04
05
01
1(
06
07
0/
0'
#90000
1&
11
0(
#100000
1%
0&
15
01
1(
16
#110000
1&
11
0(
17
1/
1'
#120000
1$
0%
0&
14
05
01
1(
07
0/
0'
#130000
1&
11
0(
17
1/
1'
#140000
1%
0&
15
01
1(
07
0/
0'
#150000
1&
11
0(
17
1/
1'
#160000
1"
0#
0$
0%
0&
13
00
04
05
01
1(
06
07
0/
0'
#170000
1&
11
0(
17
1/
1'
#180000
1%
0&
15
01
1(
07
0/
0'
#190000
1&
11
0(
17
1/
1'
#200000
1$
0%
0&
14
05
01
1(
07
0/
0'
#210000
1&
11
0(
17
1/
1'
#220000
1%
0&
15
01
1(
16
07
0/
0'
17
1/
1'
#230000
1&
11
0(
#240000
1#
0$
0%
0&
10
04
05
01
1(
06
07
0/
0'
#250000
1&
11
0(
#260000
1%
0&
15
01
1(
#270000
1&
11
0(
#280000
1$
0%
0&
14
05
01
1(
#290000
1&
11
0(
#300000
1%
0&
15
01
1(
16
#310000
1&
11
0(
17
1/
1'
#320000
1!
0"
0#
0$
0%
0&
12
03
00
04
05
01
1(
06
07
0/
0'
#330000
1&
11
0(
17
1/
1'
#340000
1%
0&
15
01
1(
16
07
0/
0'
17
1/
1'
#350000
1&
11
0(
#360000
1$
0%
0&
14
05
01
1(
06
07
0/
0'
#370000
1&
11
0(
17
1/
1'
#380000
1%
0&
15
01
1(
16
07
0/
0'
17
1/
1'
#390000
1&
11
0(
#400000
1#
0$
0%
0&
10
04
05
01
1(
06
07
0/
0'
#410000
1&
11
0(
#420000
1%
0&
15
01
1(
16
#430000
1&
11
0(
17
1/
1'
#440000
1$
0%
0&
14
05
01
1(
06
07
0/
0'
#450000
1&
11
0(
#460000
1%
0&
15
01
1(
16
#470000
1&
11
0(
17
1/
1'
#480000
1"
0#
0$
0%
0&
13
00
04
05
01
1(
06
07
0/
0'
#490000
1&
11
0(
17
1/
1'
#500000
1%
0&
15
01
1(
07
0/
0'
#510000
1&
11
0(
17
1/
1'
#520000
1$
0%
0&
14
05
01
1(
07
0/
0'
#530000
1&
11
0(
17
1/
1'
#540000
1%
0&
15
01
1(
07
0/
0'
#550000
1&
11
0(
17
1/
1'
#560000
1#
0$
0%
0&
10
04
05
01
1(
07
0/
0'
#570000
1&
11
0(
#580000
1%
0&
15
01
1(
#590000
1&
11
0(
#600000
1$
0%
0&
14
05
01
1(
#610000
1&
11
0(
#620000
1%
0&
15
01
1(
#630000
1&
11
0(
#640000
0!
0"
0#
0$
0%
0&
02
03
00
04
05
01
1(
#650000
1&
11
0(
17
1/
1'
#660000
1%
0&
15
01
1(
16
07
0/
0'
17
1/
1'
#670000
1&
11
0(
#680000
1$
0%
0&
14
05
01
1(
#690000
1&
11
0(
#700000
1%
0&
15
01
1(
#710000
1&
11
0(
#720000
1#
0$
0%
0&
10
04
05
01
1(
06
07
0/
0'
#730000
1&
11
0(
#740000
1%
0&
15
01
1(
16
#750000
1&
11
0(
17
1/
1'
#760000
1$
0%
0&
14
05
01
1(
07
0/
0'
#770000
1&
11
0(
17
1/
1'
#780000
1%
0&
15
01
1(
07
0/
0'
#790000
1&
11
0(
17
1/
1'
#800000
1"
0#
0$
0%
0&
13
00
04
05
01
1(
06
07
0/
0'
#810000
1&
11
0(
17
1/
1'
#820000
1%
0&
15
01
1(
07
0/
0'
#830000
1&
11
0(
17
1/
1'
#840000
1$
0%
0&
14
05
01
1(
07
0/
0'
#850000
1&
11
0(
17
1/
1'
#860000
1%
0&
15
01
1(
16
07
0/
0'
17
1/
1'
#870000
1&
11
0(
#880000
1#
0$
0%
0&
10
04
05
01
1(
06
07
0/
0'
#890000
1&
11
0(
#900000
1%
0&
15
01
1(
#910000
1&
11
0(
#920000
1$
0%
0&
14
05
01
1(
#930000
1&
11
0(
#940000
1%
0&
15
01
1(
16
#950000
1&
11
0(
17
1/
1'
#960000
1!
0"
0#
0$
0%
0&
12
03
00
04
05
01
1(
06
07
0/
0'
#970000
1&
11
0(
17
1/
1'
#980000
1%
0&
15
01
1(
16
07
0/
0'
17
1/
1'
#990000
1&
11
0(
