AVMS/Quartus/LAB_3/simulation/qsim/LAB_3.msim.vcd
$comment
	File created using the following command:
		vcd file LAB_3.msim.vcd -direction
$end
$date
	Thu Nov 23 15:36:07 2023
$end
$version
	ModelSim Version 10.1d
$end
$timescale
	1ps
$end
$scope module LAB_3_vlg_vec_tst $end
$var reg 3 ! a [2:0] $end
$var reg 3 " b [2:0] $end
$var wire 1 # LESS $end
$var wire 1 $ sampler $end
$scope module i1 $end
$var wire 1 % gnd $end
$var wire 1 & vcc $end
$var wire 1 ' unknown $end
$var tri1 1 ( devclrn $end
$var tri1 1 ) devpor $end
$var tri1 1 * devoe $end
$var wire 1 + LESS~output_o $end
$var wire 1 , a[2]~input_o $end
$var wire 1 - b[2]~input_o $end
$var wire 1 . a[0]~input_o $end
$var wire 1 / a[1]~input_o $end
$var wire 1 0 b[0]~input_o $end
$var wire 1 1 b[1]~input_o $end
$var wire 1 2 inst|LPM_COMPARE_component|auto_generated|op_1~0_combout $end
$var wire 1 3 inst|LPM_COMPARE_component|auto_generated|op_1~1_combout $end
$upscope $end
$upscope $end
$enddefinitions $end
#0
$dumpvars
b0 !
b0 "
0#
x$
0%
1&
x'
1(
1)
1*
0+
0,
0-
0.
0/
00
01
02
03
$end
#10000
b1 "
10
0$
12
13
1+
1#
#20000
b11 "
b10 "
00
11
1$
#30000
b11 "
10
0$
#40000
b111 "
b101 "
b100 "
00
01
1-
1$
02
#50000
b101 "
10
0$
12
#60000
b111 "
b110 "
00
11
1$
#70000
b111 "
10
0$
#80000
b1 !
b11 "
b1 "
b0 "
00
01
0-
1.
1$
02
03
0+
0#
#90000
b1 "
10
0$
#100000
b11 "
b10 "
00
11
1$
12
13
1+
1#
#110000
b11 "
10
0$
#120000
b111 "
b101 "
b100 "
00
01
1-
1$
02
#130000
b101 "
10
0$
#140000
b111 "
b110 "
00
11
1$
12
#150000
b111 "
10
0$
#160000
b11 !
b10 !
b11 "
b1 "
b0 "
00
01
0-
0.
1/
1$
02
03
0+
0#
#170000
b1 "
10
0$
#180000
b11 "
b10 "
00
11
1$
#190000
b11 "
10
0$
12
13
1+
1#
#200000
b111 "
b101 "
b100 "
00
01
1-
1$
02
#210000
b101 "
10
0$
#220000
b111 "
b110 "
00
11
1$
#230000
b111 "
10
0$
12
#240000
b11 !
b11 "
b1 "
b0 "
00
01
0-
1.
1$
02
03
0+
0#
#250000
b1 "
10
0$
#260000
b11 "
b10 "
00
11
1$
#270000
b11 "
10
0$
#280000
b111 "
b101 "
b100 "
00
01
1-
1$
13
1+
1#
#290000
b101 "
10
0$
#300000
b111 "
b110 "
00
11
1$
#310000
b111 "
10
0$
#320000
b111 !
b101 !
b100 !
b11 "
b1 "
b0 "
00
01
0-
0.
0/
1,
1$
03
0+
0#
#330000
b1 "
10
0$
12
#340000
b11 "
b10 "
00
11
1$
#350000
b11 "
10
0$
#360000
b111 "
b101 "
b100 "
00
01
1-
1$
02
13
1+
1#
03
0+
0#
#370000
b101 "
10
0$
12
13
1+
1#
#380000
b111 "
b110 "
00
11
1$
#390000
b111 "
10
0$
#400000
b101 !
b11 "
b1 "
b0 "
00
01
0-
1.
1$
02
03
0+
0#
#410000
b1 "
10
0$
#420000
b11 "
b10 "
00
11
1$
12
#430000
b11 "
10
0$
#440000
b111 "
b101 "
b100 "
00
01
1-
1$
02
13
1+
1#
03
0+
0#
#450000
b101 "
10
0$
#460000
b111 "
b110 "
00
11
1$
12
13
1+
1#
#470000
b111 "
10
0$
#480000
b111 !
b110 !
b11 "
b1 "
b0 "
00
01
0-
0.
1/
1$
02
03
0+
0#
#490000
b1 "
10
0$
#500000
b11 "
b10 "
00
11
1$
#510000
b11 "
10
0$
12
#520000
b111 "
b101 "
b100 "
00
01
1-
1$
02
13
1+
1#
03
0+
0#
#530000
b101 "
10
0$
#540000
b111 "
b110 "
00
11
1$
#550000
b111 "
10
0$
12
13
1+
1#
#560000
b111 !
b11 "
b1 "
b0 "
00
01
0-
1.
1$
02
03
0+
0#
#570000
b1 "
10
0$
#580000
b11 "
b10 "
00
11
1$
#590000
b11 "
10
0$
#600000
b111 "
b101 "
b100 "
00
01
1-
1$
#610000
b101 "
10
0$
#620000
b111 "
b110 "
00
11
1$
#630000
b111 "
10
0$
#640000
b11 !
b1 !
b0 !
b11 "
b1 "
b0 "
00
01
0-
0.
0/
0,
1$
#650000
b1 "
10
0$
12
13
1+
1#
#660000
b11 "
b10 "
00
11
1$
#670000
b11 "
10
0$
#680000
b111 "
b101 "
b100 "
00
01
1-
1$
02
#690000
b101 "
10
0$
12
#700000
b111 "
b110 "
00
11
1$
#710000
b111 "
10
0$
#720000
b1 !
b11 "
b1 "
b0 "
00
01
0-
1.
1$
02
03
0+
0#
#730000
b1 "
10
0$
#740000
b11 "
b10 "
00
11
1$
12
13
1+
1#
#750000
b11 "
10
0$
#760000
b111 "
b101 "
b100 "
00
01
1-
1$
02
#770000
b101 "
10
0$
#780000
b111 "
b110 "
00
11
1$
12
#790000
b111 "
10
0$
#800000
b11 !
b10 !
b11 "
b1 "
b0 "
00
01
0-
0.
1/
1$
02
03
0+
0#
#810000
b1 "
10
0$
#820000
b11 "
b10 "
00
11
1$
#830000
b11 "
10
0$
12
13
1+
1#
#840000
b111 "
b101 "
b100 "
00
01
1-
1$
02
#850000
b101 "
10
0$
#860000
b111 "
b110 "
00
11
1$
#870000
b111 "
10
0$
12
#880000
b11 !
b11 "
b1 "
b0 "
00
01
0-
1.
1$
02
03
0+
0#
#890000
b1 "
10
0$
#900000
b11 "
b10 "
00
11
1$
#910000
b11 "
10
0$
#920000
b111 "
b101 "
b100 "
00
01
1-
1$
13
1+
1#
#930000
b101 "
10
0$
#940000
b111 "
b110 "
00
11
1$
#950000
b111 "
10
0$
#960000
b111 !
b101 !
b100 !
b11 "
b1 "
b0 "
00
01
0-
0.
0/
1,
1$
03
0+
0#
#970000
b1 "
10
0$
12
#980000
b11 "
b10 "
00
11
1$
#990000
b11 "
10
0$
