semestr-3/AVMS/Quartus/LAB_4_v21/simulation/qsim/LAB_4_v21.msim.vcd
$comment
	File created using the following command:
		vcd file LAB_4_v21.msim.vcd -direction
$end
$date
	Mon Dec 18 15:26:02 2023
$end
$version
	ModelSim Version 10.1d
$end
$timescale
	1ps
$end
$scope module LAB_4_v21_vlg_vec_tst $end
$var reg 1 ! a $end
$var reg 1 " b $end
$var reg 1 # clock $end
$var wire 1 $ q [3] $end
$var wire 1 % q [2] $end
$var wire 1 & q [1] $end
$var wire 1 ' q [0] $end
$var wire 1 ( sampler $end
$scope module i1 $end
$var wire 1 ) gnd $end
$var wire 1 * vcc $end
$var wire 1 + unknown $end
$var tri1 1 , devclrn $end
$var tri1 1 - devpor $end
$var tri1 1 . devoe $end
$var wire 1 / clock~combout $end
$var wire 1 0 b~combout $end
$var wire 1 1 inst~1_combout $end
$var wire 1 2 a~combout $end
$var wire 1 3 inst~0_combout $end
$var wire 1 4 inst8~0_combout $end
$var wire 1 5 inst23~0_combout $end
$var wire 1 6 inst28~regout $end
$var wire 1 7 inst~2_combout $end
$var wire 1 8 inst24~2_combout $end
$var wire 1 9 inst10~2_combout $end
$var wire 1 : inst10~4_combout $end
$var wire 1 ; inst29~regout $end
$var wire 1 < inst24~4_combout $end
$var wire 1 = inst24~3_combout $end
$var wire 1 > inst27~regout $end
$var wire 1 ? inst25~4_combout $end
$var wire 1 @ inst26~regout $end
$upscope $end
$upscope $end
$enddefinitions $end
#0
$dumpvars
0!
0"
0#
0'
0&
0%
0$
x(
0)
1*
x+
1,
1-
1.
0/
00
01
02
03
04
05
06
07
08
09
1:
0;
1<
0=
0>
0?
0@
$end
#10000
1#
1/
0(
1@
1>
1;
16
1?
0:
1$
1%
1'
1&
#20000
0#
0/
1(
#30000
1#
1/
0(
0>
0;
0?
0%
0'
#40000
0#
0/
1(
#50000
1#
1/
0(
1>
0<
1%
#60000
0#
0/
1(
#70000
1#
1/
0(
0@
0>
1?
1:
15
0$
0%
#80000
0#
0/
1(
#90000
1#
1/
0(
1@
1;
06
0?
0:
19
1$
1'
0&
#100000
0#
0/
1(
#110000
1#
1/
0(
0@
1?
1<
09
0$
#120000
0#
0/
1(
#130000
1#
1/
0(
1@
1>
0;
0<
1:
13
1$
1%
0'
1=
#140000
0#
0/
1(
#150000
1#
1/
0(
1;
0?
1<
0:
03
1'
0=
#160000
0#
0/
1(
#170000
1#
1/
0(
0@
0;
05
0$
0'
#180000
0#
0/
1(
#190000
1#
1/
0(
16
1?
0<
15
11
1&
#200000
0#
0/
1(
#210000
1#
1/
0(
1@
0>
06
05
01
1$
0%
0&
#220000
0#
0/
1(
#230000
1!
1#
12
1/
0(
16
0?
1<
1&
#240000
0#
0/
1(
#250000
1#
1/
0(
1>
0<
1%
#260000
0#
0/
1(
#270000
1#
1/
0(
0@
0>
1?
1:
15
0$
0%
#280000
0#
0/
1(
#290000
1#
1/
0(
1@
1;
06
0?
0:
19
1$
1'
0&
#300000
0#
0/
1(
#310000
1#
1/
0(
0@
1?
1<
09
0$
#320000
0#
0/
1(
#330000
1#
1/
0(
1@
1>
0;
0<
1:
13
1$
1%
0'
14
#340000
0#
0/
1(
#350000
1#
1/
0(
0>
1;
16
1<
0:
19
05
03
0%
1'
1&
04
#360000
0#
0/
1(
#370000
1#
1/
0(
0@
09
17
15
0$
#380000
0#
0/
1(
#390000
1#
1/
0(
0;
06
0?
1:
07
05
0'
0&
#400000
0#
0/
1(
#410000
1#
1/
0(
1@
1>
1;
16
1?
0:
1$
1%
1'
1&
#420000
0#
0/
1(
#430000
1#
1/
0(
0>
0;
0?
0%
0'
#440000
0#
0/
1(
#450000
1#
1/
0(
1>
0<
1%
#460000
1"
0!
0#
10
02
0/
1(
#470000
1#
1/
0(
0@
0>
1:
15
0$
0%
#480000
0#
0/
1(
#490000
1#
1/
0(
1@
1;
06
0:
19
1$
1'
0&
#500000
0#
0/
1(
#510000
1#
1/
0(
0@
1?
1<
09
0$
#520000
0#
0/
1(
#530000
1#
1/
0(
1@
1>
0;
0<
1:
13
1$
1%
0'
1=
#540000
0#
0/
1(
#550000
1#
1/
0(
1;
0?
1<
0:
03
1'
0=
#560000
0#
0/
1(
#570000
1#
1/
0(
0@
0;
05
0$
0'
#580000
0#
0/
1(
#590000
1#
1/
0(
16
0<
15
11
1&
18
1=
#600000
0#
0/
1(
#610000
1#
1/
0(
1;
1?
1<
05
01
1'
08
0=
#620000
0#
0/
1(
#630000
1#
1/
0(
1@
0>
0;
0?
1$
0%
0'
#640000
0#
0/
1(
#650000
1#
1/
0(
1>
0<
1%
#660000
0#
0/
1(
#670000
1#
1/
0(
0@
0>
1:
15
0$
0%
#680000
0#
0/
1(
#690000
1!
1#
12
1/
0(
1@
1;
06
0:
19
1$
1'
0&
#700000
0#
0/
1(
#710000
1#
1/
0(
0@
1?
1<
09
0$
#720000
0#
0/
1(
#730000
1#
1/
0(
1@
1>
0;
0<
1:
13
1$
1%
0'
14
#740000
0#
0/
1(
#750000
1#
1/
0(
0>
1;
16
1<
0:
19
05
03
0%
1'
1&
04
#760000
0#
0/
1(
#770000
1#
1/
0(
0@
09
17
15
0$
18
1=
#780000
0#
0/
1(
#790000
1#
1/
0(
1>
06
1:
07
05
1%
0&
08
0=
#800000
0#
0/
1(
#810000
1#
1/
0(
1@
16
0:
1$
1&
#820000
0#
0/
1(
#830000
1#
1/
0(
0>
0;
0?
0%
0'
#840000
0#
0/
1(
#850000
1#
1/
0(
1>
0<
1%
#860000
0#
0/
1(
#870000
1#
1/
0(
0@
0>
1:
15
0$
0%
#880000
0#
0/
1(
#890000
1#
1/
0(
1@
1;
06
0:
19
1$
1'
0&
#900000
0#
0/
1(
#910000
1#
1/
0(
0@
1?
1<
09
0$
#920000
0"
0!
0#
00
02
0/
1(
#930000
1#
1/
0(
1@
1>
0;
0<
1:
13
1$
1%
0'
1=
#940000
0#
0/
1(
#950000
1#
1/
0(
1;
0?
1<
0:
03
1'
0=
#960000
0#
0/
1(
#970000
1#
1/
0(
0@
0;
05
0$
0'
#980000
0#
0/
1(
#990000
1#
1/
0(
16
1?
0<
15
11
1&
