AVMS/Quartus/LAB_4/simulation/qsim/LAB_4.msim.vcd
$comment
	File created using the following command:
		vcd file LAB_4.msim.vcd -direction
$end
$date
	Mon Dec 11 11:20:47 2023
$end
$version
	ModelSim Version 10.1d
$end
$timescale
	1ps
$end
$scope module LAB_4_vlg_vec_tst $end
$var reg 1 ! a $end
$var reg 1 " b $end
$var reg 1 # clock $end
$var wire 1 $ newq0 $end
$var wire 1 % newq1 $end
$var wire 1 & newq2 $end
$var wire 1 ' newq3 $end
$var wire 1 ( q [3] $end
$var wire 1 ) q [2] $end
$var wire 1 * q [1] $end
$var wire 1 + q [0] $end
$var wire 1 , sampler $end
$scope module i1 $end
$var wire 1 - gnd $end
$var wire 1 . vcc $end
$var wire 1 / unknown $end
$var tri1 1 0 devclrn $end
$var tri1 1 1 devpor $end
$var tri1 1 2 devoe $end
$var wire 1 3 clock~combout $end
$var wire 1 4 a~combout $end
$var wire 1 5 b~combout $end
$var wire 1 6 inst24~10 $end
$var wire 1 7 inst24~13_combout $end
$var wire 1 8 inst31~regout $end
$var wire 1 9 inst23~9_combout $end
$var wire 1 : inst33~regout $end
$var wire 1 ; inst25~4_combout $end
$var wire 1 < inst29~regout $end
$var wire 1 = inst26~2_combout $end
$var wire 1 > inst27~regout $end
$var wire 1 ? inst23~10 $end
$var wire 1 @ inst24~14 $end
$var wire 1 A inst25~5 $end
$upscope $end
$upscope $end
$enddefinitions $end
#0
$dumpvars
0!
0"
0#
0$
0%
0&
0'
0+
0*
0)
0(
x,
0-
1.
x/
10
11
12
03
04
05
16
07
08
19
0:
0;
0<
0=
0>
0?
0@
0A
$end
#10000
1#
13
0,
#20000
0#
03
1,
#30000
1#
13
0,
#40000
0#
03
1,
#50000
1#
13
0,
#60000
0#
03
1,
#70000
1#
13
0,
#80000
0#
03
1,
#90000
1#
13
0,
#100000
0#
03
1,
#110000
1#
13
0,
#120000
0#
03
1,
#130000
1#
13
0,
#140000
0#
03
1,
#150000
1#
13
0,
#160000
0#
03
1,
#170000
1#
13
0,
#180000
0#
03
1,
#190000
1#
13
0,
#200000
0#
03
1,
#210000
1#
13
0,
#220000
1!
0#
14
03
1,
06
#230000
1#
13
0,
#240000
0#
03
1,
#250000
1#
13
0,
#260000
0#
03
1,
#270000
1#
13
0,
#280000
0#
03
1,
#290000
1#
13
0,
#300000
0#
03
1,
#310000
1#
13
0,
#320000
0#
03
1,
#330000
1#
13
0,
#340000
0#
03
1,
#350000
1#
13
0,
#360000
0#
03
1,
#370000
1#
13
0,
#380000
0#
03
1,
#390000
1#
13
0,
#400000
0#
03
1,
#410000
1#
13
0,
#420000
0#
03
1,
#430000
1#
13
0,
#440000
1"
0!
0#
15
04
03
1,
09
16
#450000
1#
13
0,
#460000
0#
03
1,
#470000
1#
13
0,
#480000
0#
03
1,
#490000
1#
13
0,
#500000
0#
03
1,
#510000
1#
13
0,
#520000
0#
03
1,
#530000
1#
13
0,
#540000
0#
03
1,
#550000
1#
13
0,
#560000
0#
03
1,
#570000
1#
13
0,
#580000
0#
03
1,
#590000
1#
13
0,
#600000
0#
03
1,
#610000
1#
13
0,
#620000
0#
03
1,
#630000
1#
13
0,
#640000
0#
03
1,
#650000
1#
13
0,
#660000
1!
0#
14
03
1,
06
#670000
1#
13
0,
#680000
0#
03
1,
#690000
1#
13
0,
#700000
0#
03
1,
#710000
1#
13
0,
#720000
0#
03
1,
#730000
1#
13
0,
#740000
0#
03
1,
#750000
1#
13
0,
#760000
0#
03
1,
#770000
1#
13
0,
#780000
0#
03
1,
#790000
1#
13
0,
#800000
0#
03
1,
#810000
1#
13
0,
#820000
0#
03
1,
#830000
1#
13
0,
#840000
0#
03
1,
#850000
1#
13
0,
#860000
0#
03
1,
#870000
1#
13
0,
#880000
0"
0!
0#
05
04
03
1,
19
16
#890000
1#
13
0,
#900000
0#
03
1,
#910000
1#
13
0,
#920000
0#
03
1,
#930000
1#
13
0,
#940000
0#
03
1,
#950000
1#
13
0,
#960000
0#
03
1,
#970000
1#
13
0,
#980000
0#
03
1,
#990000
1#
13
0,
