AVMS/Quartus/LAB_4_2/simulation/qsim/LAB_4_2.msim.vcd
$comment
	File created using the following command:
		vcd file LAB_4_2.msim.vcd -direction
$end
$date
	Sat Dec 09 00:47:19 2023
$end
$version
	ModelSim Version 10.1d
$end
$timescale
	1ps
$end
$scope module LAB_4_2_vlg_vec_tst $end
$var reg 1 ! a $end
$var reg 1 " b $end
$var reg 1 # clock $end
$var wire 1 $ q [3] $end
$var wire 1 % q [2] $end
$var wire 1 & q [1] $end
$var wire 1 ' q [0] $end
$var wire 1 ( sampler $end
$scope module i1 $end
$var wire 1 ) gnd $end
$var wire 1 * vcc $end
$var wire 1 + unknown $end
$var tri1 1 , devclrn $end
$var tri1 1 - devpor $end
$var tri1 1 . devoe $end
$var wire 1 / q[0]~output_o $end
$var wire 1 0 q[1]~output_o $end
$var wire 1 1 q[2]~output_o $end
$var wire 1 2 q[3]~output_o $end
$var wire 1 3 clock~input_o $end
$var wire 1 4 clock~inputclkctrl_outclk $end
$var wire 1 5 b~input_o $end
$var wire 1 6 newq[1]~1_combout $end
$var wire 1 7 a~input_o $end
$var wire 1 8 newq[1]~0_combout $end
$var wire 1 9 newq[1]~2_combout $end
$var wire 1 : newq[3]~5_combout $end
$var wire 1 ; newq[2]~3_combout $end
$var wire 1 < newq[2]~4_combout $end
$var wire 1 = newq[0]~6_combout $end
$var wire 1 > newq[0]~7_combout $end
$var wire 1 ? tq [3] $end
$var wire 1 @ tq [2] $end
$var wire 1 A tq [1] $end
$var wire 1 B tq [0] $end
$upscope $end
$upscope $end
$enddefinitions $end
#0
$dumpvars
0!
0"
0#
x'
x&
x%
x$
x(
0)
1*
x+
1,
1-
1.
x/
x0
x1
x2
03
x4
05
x6
07
x8
x9
x:
x;
x<
x=
x>
0B
0A
0@
0?
$end
#378
04
#440
06
#595
08
#855
0:
#863
0>
#864
0<
#913
09
#3105
01
0%
#3188
02
0$
#3213
00
0&
#3712
0;
1=
#4108
0/
0'
#10000
1#
0(
#10527
13
#10917
14
#20000
0#
1(
#20701
03
#21079
04
#30000
1#
0(
#30527
13
#30917
14
#40000
0#
1(
#40701
03
#41079
04
#50000
1#
0(
#50527
13
#50917
14
#60000
0#
1(
#60701
03
#61079
04
#70000
1#
0(
#70527
13
#70917
14
#80000
0#
1(
#80701
03
#81079
04
#90000
1#
0(
#90527
13
#90917
14
#100000
0#
1(
#100701
03
#101079
04
#110000
1#
0(
#110527
13
#110917
14
#120000
0#
1(
#120701
03
#121079
04
#130000
1#
0(
#130527
13
#130917
14
#140000
0#
1(
#140701
03
#141079
04
#150000
1#
0(
#150527
13
#150917
14
#160000
0#
1(
#160701
03
#161079
04
#170000
1#
0(
#170527
13
#170917
14
#180000
0#
1(
#180701
03
#181079
04
#190000
1#
0(
#190527
13
#190917
14
#200000
0#
1(
#200701
03
#201079
04
#210000
1#
0(
#210527
13
#210917
14
#220000
1!
0#
1(
#220507
17
#220701
03
#221079
04
#223957
1;
#230000
1#
0(
#230527
13
#230917
14
#240000
0#
1(
#240701
03
#241079
04
#250000
1#
0(
#250527
13
#250917
14
#260000
0#
1(
#260701
03
#261079
04
#270000
1#
0(
#270527
13
#270917
14
#280000
0#
1(
#280701
03
#281079
04
#290000
1#
0(
#290527
13
#290917
14
#300000
0#
1(
#300701
03
#301079
04
#310000
1#
0(
#310527
13
#310917
14
#320000
0#
1(
#320701
03
#321079
04
#330000
1#
0(
#330527
13
#330917
14
#340000
0#
1(
#340701
03
#341079
04
#350000
1#
0(
#350527
13
#350917
14
#360000
0#
1(
#360701
03
#361079
04
#370000
1#
0(
#370527
13
#370917
14
#380000
0#
1(
#380701
03
#381079
04
#390000
1#
0(
#390527
13
#390917
14
#400000
0#
1(
#400701
03
#401079
04
#410000
1#
0(
#410527
13
#410917
14
#420000
0#
1(
#420701
03
#421079
04
#430000
1#
0(
#430527
13
#430917
14
#440000
1"
0!
0#
1(
#440517
15
#440681
07
#440701
03
#441079
04
#444000
0=
#444393
0;
#450000
1#
0(
#450527
13
#450917
14
#460000
0#
1(
#460701
03
#461079
04
#470000
1#
0(
#470527
13
#470917
14
#480000
0#
1(
#480701
03
#481079
04
#490000
1#
0(
#490527
13
#490917
14
#500000
0#
1(
#500701
03
#501079
04
#510000
1#
0(
#510527
13
#510917
14
#520000
0#
1(
#520701
03
#521079
04
#530000
1#
0(
#530527
13
#530917
14
#540000
0#
1(
#540701
03
#541079
04
#550000
1#
0(
#550527
13
#550917
14
#560000
0#
1(
#560701
03
#561079
04
#570000
1#
0(
#570527
13
#570917
14
#580000
0#
1(
#580701
03
#581079
04
#590000
1#
0(
#590527
13
#590917
14
#600000
0#
1(
#600701
03
#601079
04
#610000
1#
0(
#610527
13
#610917
14
#620000
0#
1(
#620701
03
#621079
04
#630000
1#
0(
#630527
13
#630917
14
#640000
0#
1(
#640701
03
#641079
04
#650000
1#
0(
#650527
13
#650917
14
#660000
1!
0#
1(
#660507
17
#660701
03
#661079
04
#663957
1;
#670000
1#
0(
#670527
13
#670917
14
#680000
0#
1(
#680701
03
#681079
04
#690000
1#
0(
#690527
13
#690917
14
#700000
0#
1(
#700701
03
#701079
04
#710000
1#
0(
#710527
13
#710917
14
#720000
0#
1(
#720701
03
#721079
04
#730000
1#
0(
#730527
13
#730917
14
#740000
0#
1(
#740701
03
#741079
04
#750000
1#
0(
#750527
13
#750917
14
#760000
0#
1(
#760701
03
#761079
04
#770000
1#
0(
#770527
13
#770917
14
#780000
0#
1(
#780701
03
#781079
04
#790000
1#
0(
#790527
13
#790917
14
#800000
0#
1(
#800701
03
#801079
04
#810000
1#
0(
#810527
13
#810917
14
#820000
0#
1(
#820701
03
#821079
04
#830000
1#
0(
#830527
13
#830917
14
#840000
0#
1(
#840701
03
#841079
04
#850000
1#
0(
#850527
13
#850917
14
#860000
0#
1(
#860701
03
#861079
04
#870000
1#
0(
#870527
13
#870917
14
#880000
0"
0!
0#
1(
#880681
07
#880691
05
#880701
03
#881079
04
#884393
0;
#884403
1=
#890000
1#
0(
#890527
13
#890917
14
#900000
0#
1(
#900701
03
#901079
04
#910000
1#
0(
#910527
13
#910917
14
#920000
0#
1(
#920701
03
#921079
04
#930000
1#
0(
#930527
13
#930917
14
#940000
0#
1(
#940701
03
#941079
04
#950000
1#
0(
#950527
13
#950917
14
#960000
0#
1(
#960701
03
#961079
04
#970000
1#
0(
#970527
13
#970917
14
#980000
0#
1(
#980701
03
#981079
04
#990000
1#
0(
#990527
13
