semestr_1/AVMS/Quartus/LAB_2_1/simulation/qsim/LAB_2_1.msim.vcd
$comment
	File created using the following command:
		vcd file LAB_2_1.msim.vcd -direction
$end
$date
	Mon Nov 20 18:55:26 2023
$end
$version
	ModelSim Version 10.1d
$end
$timescale
	1ps
$end
$scope module LAB_2_1_vlg_vec_tst $end
$var reg 1 ! A0 $end
$var reg 1 " A1 $end
$var reg 1 # A2 $end
$var reg 1 $ B0 $end
$var reg 1 % B1 $end
$var reg 1 & B2 $end
$var wire 1 ' LESS $end
$var wire 1 ( sampler $end
$scope module i1 $end
$var wire 1 ) gnd $end
$var wire 1 * vcc $end
$var wire 1 + unknown $end
$var tri1 1 , devclrn $end
$var tri1 1 - devpor $end
$var tri1 1 . devoe $end
$var wire 1 / LESS~output_o $end
$var wire 1 0 A0~input_o $end
$var wire 1 1 B0~input_o $end
$var wire 1 2 A2~input_o $end
$var wire 1 3 A1~input_o $end
$var wire 1 4 B2~input_o $end
$var wire 1 5 B1~input_o $end
$var wire 1 6 inst10~0_combout $end
$var wire 1 7 inst10~1_combout $end
$upscope $end
$upscope $end
$enddefinitions $end
#0
$dumpvars
0!
0"
0#
0$
0%
0&
0'
x(
0)
1*
x+
1,
1-
1.
0/
00
01
02
03
04
05
06
07
$end
#10000
1&
14
0(
16
17
1/
1'
#20000
1%
0&
15
04
1(
#30000
1&
14
0(
#40000
1$
0%
0&
11
05
04
1(
06
#50000
1&
14
0(
16
#60000
1%
0&
15
04
1(
#70000
1&
14
0(
#80000
1#
0$
0%
0&
12
01
05
04
1(
06
07
0/
0'
#90000
1&
14
0(
#100000
1%
0&
15
04
1(
16
17
1/
1'
#110000
1&
14
0(
#120000
1$
0%
0&
11
05
04
1(
06
#130000
1&
14
0(
#140000
1%
0&
15
04
1(
16
#150000
1&
14
0(
#160000
1"
0#
0$
0%
0&
13
02
01
05
04
1(
06
07
0/
0'
#170000
1&
14
0(
#180000
1%
0&
15
04
1(
#190000
1&
14
0(
16
17
1/
1'
#200000
1$
0%
0&
11
05
04
1(
06
#210000
1&
14
0(
#220000
1%
0&
15
04
1(
#230000
1&
14
0(
16
#240000
1#
0$
0%
0&
12
01
05
04
1(
06
07
0/
0'
#250000
1&
14
0(
#260000
1%
0&
15
04
1(
#270000
1&
14
0(
#280000
1$
0%
0&
11
05
04
1(
17
1/
1'
#290000
1&
14
0(
#300000
1%
0&
15
04
1(
#310000
1&
14
0(
#320000
1!
0"
0#
0$
0%
0&
10
03
02
01
05
04
1(
07
0/
0'
#330000
1&
14
0(
16
#340000
1%
0&
15
04
1(
#350000
1&
14
0(
#360000
1$
0%
0&
11
05
04
1(
06
17
1/
1'
07
0/
0'
#370000
1&
14
0(
16
17
1/
1'
#380000
1%
0&
15
04
1(
#390000
1&
14
0(
#400000
1#
0$
0%
0&
12
01
05
04
1(
06
07
0/
0'
#410000
1&
14
0(
#420000
1%
0&
15
04
1(
16
#430000
1&
14
0(
#440000
1$
0%
0&
11
05
04
1(
06
17
1/
1'
07
0/
0'
#450000
1&
14
0(
#460000
1%
0&
15
04
1(
16
17
1/
1'
#470000
1&
14
0(
#480000
1"
0#
0$
0%
0&
13
02
01
05
04
1(
06
07
0/
0'
#490000
1&
14
0(
#500000
1%
0&
15
04
1(
#510000
1&
14
0(
16
#520000
1$
0%
0&
11
05
04
1(
06
17
1/
1'
07
0/
0'
#530000
1&
14
0(
#540000
1%
0&
15
04
1(
#550000
1&
14
0(
16
17
1/
1'
#560000
1#
0$
0%
0&
12
01
05
04
1(
06
07
0/
0'
#570000
1&
14
0(
#580000
1%
0&
15
04
1(
#590000
1&
14
0(
#600000
1$
0%
0&
11
05
04
1(
#610000
1&
14
0(
#620000
1%
0&
15
04
1(
#630000
1&
14
0(
#640000
0!
0"
0#
0$
0%
0&
00
03
02
01
05
04
1(
#650000
1&
14
0(
16
17
1/
1'
#660000
1%
0&
15
04
1(
#670000
1&
14
0(
#680000
1$
0%
0&
11
05
04
1(
06
#690000
1&
14
0(
16
#700000
1%
0&
15
04
1(
#710000
1&
14
0(
#720000
1#
0$
0%
0&
12
01
05
04
1(
06
07
0/
0'
#730000
1&
14
0(
#740000
1%
0&
15
04
1(
16
17
1/
1'
#750000
1&
14
0(
#760000
1$
0%
0&
11
05
04
1(
06
#770000
1&
14
0(
#780000
1%
0&
15
04
1(
16
#790000
1&
14
0(
#800000
1"
0#
0$
0%
0&
13
02
01
05
04
1(
06
07
0/
0'
#810000
1&
14
0(
#820000
1%
0&
15
04
1(
#830000
1&
14
0(
16
17
1/
1'
#840000
1$
0%
0&
11
05
04
1(
06
#850000
1&
14
0(
#860000
1%
0&
15
04
1(
#870000
1&
14
0(
16
#880000
1#
0$
0%
0&
12
01
05
04
1(
06
07
0/
0'
#890000
1&
14
0(
#900000
1%
0&
15
04
1(
#910000
1&
14
0(
#920000
1$
0%
0&
11
05
04
1(
17
1/
1'
#930000
1&
14
0(
#940000
1%
0&
15
04
1(
#950000
1&
14
0(
#960000
1!
0"
0#
0$
0%
0&
10
03
02
01
05
04
1(
07
0/
0'
#970000
1&
14
0(
16
#980000
1%
0&
15
04
1(
#990000
1&
14
0(
