AVMS/Quartus/LAB_1_1/simulation/qsim/LAB1_1.msim.vcd
$comment
	File created using the following command:
		vcd file LAB1_1.msim.vcd -direction
$end
$date
	Sun Nov 12 18:12:33 2023
$end
$version
	ModelSim Version 10.1d
$end
$timescale
	1ps
$end
$scope module LAB1_1_vlg_vec_tst $end
$var reg 1 ! A $end
$var reg 1 " B $end
$var reg 1 # C $end
$var reg 1 $ D $end
$var wire 1 % Y $end
$var wire 1 & sampler $end
$scope module i1 $end
$var wire 1 ' gnd $end
$var wire 1 ( vcc $end
$var wire 1 ) unknown $end
$var tri1 1 * devclrn $end
$var tri1 1 + devpor $end
$var tri1 1 , devoe $end
$var wire 1 - Y~output_o $end
$var wire 1 . B~input_o $end
$var wire 1 / D~input_o $end
$var wire 1 0 A~input_o $end
$var wire 1 1 C~input_o $end
$var wire 1 2 inst7~combout $end
$upscope $end
$upscope $end
$enddefinitions $end
#0
$dumpvars
0!
0"
0#
0$
0%
x&
0'
1(
x)
1*
1+
1,
0-
0.
0/
00
01
02
$end
#2000
1$
1/
0&
12
1-
1%
#4000
1#
0$
11
0/
1&
02
0-
0%
#6000
1$
1/
0&
#8000
1"
0#
0$
1.
01
0/
1&
#10000
1$
1/
0&
12
1-
1%
#12000
1#
0$
11
0/
1&
#14000
1$
1/
0&
#16000
1!
0"
0#
0$
10
0.
01
0/
1&
02
0-
0%
#18000
1$
1/
0&
12
1-
1%
#20000
1#
0$
11
0/
1&
02
0-
0%
#22000
1$
1/
0&
#24000
1"
0#
0$
1.
01
0/
1&
12
1-
1%
#26000
1$
1/
0&
#28000
1#
0$
11
0/
1&
02
0-
0%
#30000
1$
1/
0&
#32000
0!
0"
0#
0$
00
0.
01
0/
1&
#34000
1$
1/
0&
12
1-
1%
#36000
1#
0$
11
0/
1&
02
0-
0%
#38000
1$
1/
0&
#40000
1"
0#
0$
1.
01
0/
1&
#42000
1$
1/
0&
12
1-
1%
#44000
1#
0$
11
0/
1&
#46000
1$
1/
0&
#48000
1!
0"
0#
0$
10
0.
01
0/
1&
02
0-
0%
#50000
1$
1/
0&
12
1-
1%
#52000
1#
0$
11
0/
1&
02
0-
0%
#54000
1$
1/
0&
#56000
1"
0#
0$
1.
01
0/
1&
12
1-
1%
#58000
1$
1/
0&
#60000
1#
0$
11
0/
1&
02
0-
0%
#62000
1$
1/
0&
#64000
0!
0"
0#
0$
00
0.
01
0/
1&
#66000
1$
1/
0&
12
1-
1%
#68000
1#
0$
11
0/
1&
02
0-
0%
#70000
1$
1/
0&
#72000
1"
0#
0$
1.
01
0/
1&
#74000
1$
1/
0&
12
1-
1%
#76000
1#
0$
11
0/
1&
#78000
1$
1/
0&
#80000
1!
0"
0#
0$
10
0.
01
0/
1&
02
0-
0%
#82000
1$
1/
0&
12
1-
1%
#84000
1#
0$
11
0/
1&
02
0-
0%
#86000
1$
1/
0&
#88000
1"
0#
0$
1.
01
0/
1&
12
1-
1%
#90000
1$
1/
0&
#92000
1#
0$
11
0/
1&
02
0-
0%
#94000
1$
1/
0&
#96000
0!
0"
0#
0$
00
0.
01
0/
1&
#98000
1$
1/
0&
12
1-
1%
#100000
1#
0$
11
0/
1&
02
0-
0%
#102000
1$
1/
0&
#104000
1"
0#
0$
1.
01
0/
1&
#106000
1$
1/
0&
12
1-
1%
#108000
1#
0$
11
0/
1&
#110000
1$
1/
0&
#112000
1!
0"
0#
0$
10
0.
01
0/
1&
02
0-
0%
#114000
1$
1/
0&
12
1-
1%
#116000
1#
0$
11
0/
1&
02
0-
0%
#118000
1$
1/
0&
#120000
1"
0#
0$
1.
01
0/
1&
12
1-
1%
#122000
1$
1/
0&
#124000
1#
0$
11
0/
1&
02
0-
0%
#126000
1$
1/
0&
#128000
0!
0"
0#
0$
00
0.
01
0/
1&
#130000
1$
1/
0&
12
1-
1%
#132000
1#
0$
11
0/
1&
02
0-
0%
#134000
1$
1/
0&
#136000
1"
0#
0$
1.
01
0/
1&
#138000
1$
1/
0&
12
1-
1%
#140000
1#
0$
11
0/
1&
#142000
1$
1/
0&
#144000
1!
0"
0#
0$
10
0.
01
0/
1&
02
0-
0%
#146000
1$
1/
0&
12
1-
1%
#148000
1#
0$
11
0/
1&
02
0-
0%
#150000
1$
1/
0&
#152000
1"
0#
0$
1.
01
0/
1&
12
1-
1%
#154000
1$
1/
0&
#156000
1#
0$
11
0/
1&
02
0-
0%
#158000
1$
1/
0&
#160000
0!
0"
0#
0$
00
0.
01
0/
1&
#162000
1$
1/
0&
12
1-
1%
#164000
1#
0$
11
0/
1&
02
0-
0%
#166000
1$
1/
0&
#168000
1"
0#
0$
1.
01
0/
1&
#170000
1$
1/
0&
12
1-
1%
#172000
1#
0$
11
0/
1&
#174000
1$
1/
0&
#176000
1!
0"
0#
0$
10
0.
01
0/
1&
02
0-
0%
#178000
1$
1/
0&
12
1-
1%
#180000
1#
0$
11
0/
1&
02
0-
0%
#182000
1$
1/
0&
#184000
1"
0#
0$
1.
01
0/
1&
12
1-
1%
#186000
1$
1/
0&
#188000
1#
0$
11
0/
1&
02
0-
0%
#190000
1$
1/
0&
#192000
0!
0"
0#
0$
00
0.
01
0/
1&
#194000
1$
1/
0&
12
1-
1%
#196000
1#
0$
11
0/
1&
02
0-
0%
#198000
1$
1/
0&
#200000
1"
0#
0$
1.
01
0/
1&
#202000
1$
1/
0&
12
1-
1%
#204000
1#
0$
11
0/
1&
#206000
1$
1/
0&
#208000
1!
0"
0#
0$
10
0.
01
0/
1&
02
0-
0%
#210000
1$
1/
0&
12
1-
1%
#212000
1#
0$
11
0/
1&
02
0-
0%
#214000
1$
1/
0&
#216000
1"
0#
0$
1.
01
0/
1&
12
1-
1%
#218000
1$
1/
0&
#220000
1#
0$
11
0/
1&
02
0-
0%
#222000
1$
1/
0&
#224000
0!
0"
0#
0$
00
0.
01
0/
1&
#226000
1$
1/
0&
12
1-
1%
#228000
1#
0$
11
0/
1&
02
0-
0%
#230000
1$
1/
0&
#232000
1"
0#
0$
1.
01
0/
1&
#234000
1$
1/
0&
12
1-
1%
#236000
1#
0$
11
0/
1&
#238000
1$
1/
0&
#240000
1!
0"
0#
0$
10
0.
01
0/
1&
02
0-
0%
#242000
1$
1/
0&
12
1-
1%
#244000
1#
0$
11
0/
1&
02
0-
0%
#246000
1$
1/
0&
#248000
1"
0#
0$
1.
01
0/
1&
12
1-
1%
#250000
1$
1/
0&
#252000
1#
0$
11
0/
1&
02
0-
0%
#254000
1$
1/
0&
#256000
0!
0"
0#
0$
00
0.
01
0/
1&
#258000
1$
1/
0&
12
1-
1%
#260000
1#
0$
11
0/
1&
02
0-
0%
#262000
1$
1/
0&
#264000
1"
0#
0$
1.
01
0/
1&
#266000
1$
1/
0&
12
1-
1%
#268000
1#
0$
11
0/
1&
#270000
1$
1/
0&
#272000
1!
0"
0#
0$
10
0.
01
0/
1&
02
0-
0%
#274000
1$
1/
0&
12
1-
1%
#276000
1#
0$
11
0/
1&
02
0-
0%
#278000
1$
1/
0&
#280000
1"
0#
0$
1.
01
0/
1&
12
1-
1%
#282000
1$
1/
0&
#284000
1#
0$
11
0/
1&
02
0-
0%
#286000
1$
1/
0&
#288000
0!
0"
0#
0$
00
0.
01
0/
1&
#290000
1$
1/
0&
12
1-
1%
#292000
1#
0$
11
0/
1&
02
0-
0%
#294000
1$
1/
0&
#296000
1"
0#
0$
1.
01
0/
1&
#298000
1$
1/
0&
12
1-
1%
#300000
1#
0$
11
0/
1&
#302000
1$
1/
0&
#304000
1!
0"
0#
0$
10
0.
01
0/
1&
02
0-
0%
#306000
1$
1/
0&
12
1-
1%
#308000
1#
0$
11
0/
1&
02
0-
0%
#310000
1$
1/
0&
#312000
1"
0#
0$
1.
01
0/
1&
12
1-
1%
#314000
1$
1/
0&
#316000
1#
0$
11
0/
1&
02
0-
0%
#318000
1$
1/
0&
#320000
0!
0"
0#
0$
00
0.
01
0/
1&
#322000
1$
1/
0&
12
1-
1%
#324000
1#
0$
11
0/
1&
02
0-
0%
#326000
1$
1/
0&
#328000
1"
0#
0$
1.
01
0/
1&
#330000
1$
1/
0&
12
1-
1%
#332000
1#
0$
11
0/
1&
#334000
1$
1/
0&
#336000
1!
0"
0#
0$
10
0.
01
0/
1&
02
0-
0%
#338000
1$
1/
0&
12
1-
1%
#340000
1#
0$
11
0/
1&
02
0-
0%
#342000
1$
1/
0&
#344000
1"
0#
0$
1.
01
0/
1&
12
1-
1%
#346000
1$
1/
0&
#348000
1#
0$
11
0/
1&
02
0-
0%
#350000
1$
1/
0&
#352000
0!
0"
0#
0$
00
0.
01
0/
1&
#354000
1$
1/
0&
12
1-
1%
#356000
1#
0$
11
0/
1&
02
0-
0%
#358000
1$
1/
0&
#360000
1"
0#
0$
1.
01
0/
1&
#362000
1$
1/
0&
12
1-
1%
#364000
1#
0$
11
0/
1&
#366000
1$
1/
0&
#368000
1!
0"
0#
0$
10
0.
01
0/
1&
02
0-
0%
#370000
1$
1/
0&
12
1-
1%
#372000
1#
0$
11
0/
1&
02
0-
0%
#374000
1$
1/
0&
#376000
1"
0#
0$
1.
01
0/
1&
12
1-
1%
#378000
1$
1/
0&
#380000
1#
0$
11
0/
1&
02
0-
0%
#382000
1$
1/
0&
#384000
0!
0"
0#
0$
00
0.
01
0/
1&
#386000
1$
1/
0&
12
1-
1%
#388000
1#
0$
11
0/
1&
02
0-
0%
#390000
1$
1/
0&
#392000
1"
0#
0$
1.
01
0/
1&
#394000
1$
1/
0&
12
1-
1%
#396000
1#
0$
11
0/
1&
#398000
1$
1/
0&
#400000
1!
0"
0#
0$
10
0.
01
0/
1&
02
0-
0%
#402000
1$
1/
0&
12
1-
1%
#404000
1#
0$
11
0/
1&
02
0-
0%
#406000
1$
1/
0&
#408000
1"
0#
0$
1.
01
0/
1&
12
1-
1%
#410000
1$
1/
0&
#412000
1#
0$
11
0/
1&
02
0-
0%
#414000
1$
1/
0&
#416000
0!
0"
0#
0$
00
0.
01
0/
1&
#418000
1$
1/
0&
12
1-
1%
#420000
1#
0$
11
0/
1&
02
0-
0%
#422000
1$
1/
0&
#424000
1"
0#
0$
1.
01
0/
1&
#426000
1$
1/
0&
12
1-
1%
#428000
1#
0$
11
0/
1&
#430000
1$
1/
0&
#432000
1!
0"
0#
0$
10
0.
01
0/
1&
02
0-
0%
#434000
1$
1/
0&
12
1-
1%
#436000
1#
0$
11
0/
1&
02
0-
0%
#438000
1$
1/
0&
#440000
1"
0#
0$
1.
01
0/
1&
12
1-
1%
#442000
1$
1/
0&
#444000
1#
0$
11
0/
1&
02
0-
0%
#446000
1$
1/
0&
#448000
0!
0"
0#
0$
00
0.
01
0/
1&
#450000
1$
1/
0&
12
1-
1%
#452000
1#
0$
11
0/
1&
02
0-
0%
#454000
1$
1/
0&
#456000
1"
0#
0$
1.
01
0/
1&
#458000
1$
1/
0&
12
1-
1%
#460000
1#
0$
11
0/
1&
#462000
1$
1/
0&
#464000
1!
0"
0#
0$
10
0.
01
0/
1&
02
0-
0%
#466000
1$
1/
0&
12
1-
1%
#468000
1#
0$
11
0/
1&
02
0-
0%
#470000
1$
1/
0&
#472000
1"
0#
0$
1.
01
0/
1&
12
1-
1%
#474000
1$
1/
0&
#476000
1#
0$
11
0/
1&
02
0-
0%
#478000
1$
1/
0&
#480000
0!
0"
0#
0$
00
0.
01
0/
1&
#482000
1$
1/
0&
12
1-
1%
#484000
1#
0$
11
0/
1&
02
0-
0%
#486000
1$
1/
0&
#488000
1"
0#
0$
1.
01
0/
1&
#490000
1$
1/
0&
12
1-
1%
#492000
1#
0$
11
0/
1&
#494000
1$
1/
0&
#496000
1!
0"
0#
0$
10
0.
01
0/
1&
02
0-
0%
#498000
1$
1/
0&
12
1-
1%
#500000
1#
0$
11
0/
1&
02
0-
0%
#502000
1$
1/
0&
#504000
1"
0#
0$
1.
01
0/
1&
12
1-
1%
#506000
1$
1/
0&
#508000
1#
0$
11
0/
1&
02
0-
0%
#510000
1$
1/
0&
#512000
0!
0"
0#
0$
00
0.
01
0/
1&
#514000
1$
1/
0&
12
1-
1%
#516000
1#
0$
11
0/
1&
02
0-
0%
#518000
1$
1/
0&
#520000
1"
0#
0$
1.
01
0/
1&
#522000
1$
1/
0&
12
1-
1%
#524000
1#
0$
11
0/
1&
#526000
1$
1/
0&
#528000
1!
0"
0#
0$
10
0.
01
0/
1&
02
0-
0%
#530000
1$
1/
0&
12
1-
1%
#532000
1#
0$
11
0/
1&
02
0-
0%
#534000
1$
1/
0&
#536000
1"
0#
0$
1.
01
0/
1&
12
1-
1%
#538000
1$
1/
0&
#540000
1#
0$
11
0/
1&
02
0-
0%
#542000
1$
1/
0&
#544000
0!
0"
0#
0$
00
0.
01
0/
1&
#546000
1$
1/
0&
12
1-
1%
#548000
1#
0$
11
0/
1&
02
0-
0%
#550000
1$
1/
0&
#552000
1"
0#
0$
1.
01
0/
1&
#554000
1$
1/
0&
12
1-
1%
#556000
1#
0$
11
0/
1&
#558000
1$
1/
0&
#560000
1!
0"
0#
0$
10
0.
01
0/
1&
02
0-
0%
#562000
1$
1/
0&
12
1-
1%
#564000
1#
0$
11
0/
1&
02
0-
0%
#566000
1$
1/
0&
#568000
1"
0#
0$
1.
01
0/
1&
12
1-
1%
#570000
1$
1/
0&
#572000
1#
0$
11
0/
1&
02
0-
0%
#574000
1$
1/
0&
#576000
0!
0"
0#
0$
00
0.
01
0/
1&
#578000
1$
1/
0&
12
1-
1%
#580000
1#
0$
11
0/
1&
02
0-
0%
#582000
1$
1/
0&
#584000
1"
0#
0$
1.
01
0/
1&
#586000
1$
1/
0&
12
1-
1%
#588000
1#
0$
11
0/
1&
#590000
1$
1/
0&
#592000
1!
0"
0#
0$
10
0.
01
0/
1&
02
0-
0%
#594000
1$
1/
0&
12
1-
1%
#596000
1#
0$
11
0/
1&
02
0-
0%
#598000
1$
1/
0&
#600000
1"
0#
0$
1.
01
0/
1&
12
1-
1%
#602000
1$
1/
0&
#604000
1#
0$
11
0/
1&
02
0-
0%
#606000
1$
1/
0&
#608000
0!
0"
0#
0$
00
0.
01
0/
1&
#610000
1$
1/
0&
12
1-
1%
#612000
1#
0$
11
0/
1&
02
0-
0%
#614000
1$
1/
0&
#616000
1"
0#
0$
1.
01
0/
1&
#618000
1$
1/
0&
12
1-
1%
#620000
1#
0$
11
0/
1&
#622000
1$
1/
0&
#624000
1!
0"
0#
0$
10
0.
01
0/
1&
02
0-
0%
#626000
1$
1/
0&
12
1-
1%
#628000
1#
0$
11
0/
1&
02
0-
0%
#630000
1$
1/
0&
#632000
1"
0#
0$
1.
01
0/
1&
12
1-
1%
#634000
1$
1/
0&
#636000
1#
0$
11
0/
1&
02
0-
0%
#638000
1$
1/
0&
#640000
0!
0"
0#
0$
00
0.
01
0/
1&
#642000
1$
1/
0&
12
1-
1%
#644000
1#
0$
11
0/
1&
02
0-
0%
#646000
1$
1/
0&
#648000
1"
0#
0$
1.
01
0/
1&
#650000
1$
1/
0&
12
1-
1%
#652000
1#
0$
11
0/
1&
#654000
1$
1/
0&
#656000
1!
0"
0#
0$
10
0.
01
0/
1&
02
0-
0%
#658000
1$
1/
0&
12
1-
1%
#660000
1#
0$
11
0/
1&
02
0-
0%
#662000
1$
1/
0&
#664000
1"
0#
0$
1.
01
0/
1&
12
1-
1%
#666000
1$
1/
0&
#668000
1#
0$
11
0/
1&
02
0-
0%
#670000
1$
1/
0&
#672000
0!
0"
0#
0$
00
0.
01
0/
1&
#674000
1$
1/
0&
12
1-
1%
#676000
1#
0$
11
0/
1&
02
0-
0%
#678000
1$
1/
0&
#680000
1"
0#
0$
1.
01
0/
1&
#682000
1$
1/
0&
12
1-
1%
#684000
1#
0$
11
0/
1&
#686000
1$
1/
0&
#688000
1!
0"
0#
0$
10
0.
01
0/
1&
02
0-
0%
#690000
1$
1/
0&
12
1-
1%
#692000
1#
0$
11
0/
1&
02
0-
0%
#694000
1$
1/
0&
#696000
1"
0#
0$
1.
01
0/
1&
12
1-
1%
#698000
1$
1/
0&
#700000
1#
0$
11
0/
1&
02
0-
0%
#702000
1$
1/
0&
#704000
0!
0"
0#
0$
00
0.
01
0/
1&
#706000
1$
1/
0&
12
1-
1%
#708000
1#
0$
11
0/
1&
02
0-
0%
#710000
1$
1/
0&
#712000
1"
0#
0$
1.
01
0/
1&
#714000
1$
1/
0&
12
1-
1%
#716000
1#
0$
11
0/
1&
#718000
1$
1/
0&
#720000
1!
0"
0#
0$
10
0.
01
0/
1&
02
0-
0%
#722000
1$
1/
0&
12
1-
1%
#724000
1#
0$
11
0/
1&
02
0-
0%
#726000
1$
1/
0&
#728000
1"
0#
0$
1.
01
0/
1&
12
1-
1%
#730000
1$
1/
0&
#732000
1#
0$
11
0/
1&
02
0-
0%
#734000
1$
1/
0&
#736000
0!
0"
0#
0$
00
0.
01
0/
1&
#738000
1$
1/
0&
12
1-
1%
#740000
1#
0$
11
0/
1&
02
0-
0%
#742000
1$
1/
0&
#744000
1"
0#
0$
1.
01
0/
1&
#746000
1$
1/
0&
12
1-
1%
#748000
1#
0$
11
0/
1&
#750000
1$
1/
0&
#752000
1!
0"
0#
0$
10
0.
01
0/
1&
02
0-
0%
#754000
1$
1/
0&
12
1-
1%
#756000
1#
0$
11
0/
1&
02
0-
0%
#758000
1$
1/
0&
#760000
1"
0#
0$
1.
01
0/
1&
12
1-
1%
#762000
1$
1/
0&
#764000
1#
0$
11
0/
1&
02
0-
0%
#766000
1$
1/
0&
#768000
0!
0"
0#
0$
00
0.
01
0/
1&
#770000
1$
1/
0&
12
1-
1%
#772000
1#
0$
11
0/
1&
02
0-
0%
#774000
1$
1/
0&
#776000
1"
0#
0$
1.
01
0/
1&
#778000
1$
1/
0&
12
1-
1%
#780000
1#
0$
11
0/
1&
#782000
1$
1/
0&
#784000
1!
0"
0#
0$
10
0.
01
0/
1&
02
0-
0%
#786000
1$
1/
0&
12
1-
1%
#788000
1#
0$
11
0/
1&
02
0-
0%
#790000
1$
1/
0&
#792000
1"
0#
0$
1.
01
0/
1&
12
1-
1%
#794000
1$
1/
0&
#796000
1#
0$
11
0/
1&
02
0-
0%
#798000
1$
1/
0&
#800000
0!
0"
0#
0$
00
0.
01
0/
1&
#802000
1$
1/
0&
12
1-
1%
#804000
1#
0$
11
0/
1&
02
0-
0%
#806000
1$
1/
0&
#808000
1"
0#
0$
1.
01
0/
1&
#810000
1$
1/
0&
12
1-
1%
#812000
1#
0$
11
0/
1&
#814000
1$
1/
0&
#816000
1!
0"
0#
0$
10
0.
01
0/
1&
02
0-
0%
#818000
1$
1/
0&
12
1-
1%
#820000
1#
0$
11
0/
1&
02
0-
0%
#822000
1$
1/
0&
#824000
1"
0#
0$
1.
01
0/
1&
12
1-
1%
#826000
1$
1/
0&
#828000
1#
0$
11
0/
1&
02
0-
0%
#830000
1$
1/
0&
#832000
0!
0"
0#
0$
00
0.
01
0/
1&
#834000
1$
1/
0&
12
1-
1%
#836000
1#
0$
11
0/
1&
02
0-
0%
#838000
1$
1/
0&
#840000
1"
0#
0$
1.
01
0/
1&
#842000
1$
1/
0&
12
1-
1%
#844000
1#
0$
11
0/
1&
#846000
1$
1/
0&
#848000
1!
0"
0#
0$
10
0.
01
0/
1&
02
0-
0%
#850000
1$
1/
0&
12
1-
1%
#852000
1#
0$
11
0/
1&
02
0-
0%
#854000
1$
1/
0&
#856000
1"
0#
0$
1.
01
0/
1&
12
1-
1%
#858000
1$
1/
0&
#860000
1#
0$
11
0/
1&
02
0-
0%
#862000
1$
1/
0&
#864000
0!
0"
0#
0$
00
0.
01
0/
1&
#866000
1$
1/
0&
12
1-
1%
#868000
1#
0$
11
0/
1&
02
0-
0%
#870000
1$
1/
0&
#872000
1"
0#
0$
1.
01
0/
1&
#874000
1$
1/
0&
12
1-
1%
#876000
1#
0$
11
0/
1&
#878000
1$
1/
0&
#880000
1!
0"
0#
0$
10
0.
01
0/
1&
02
0-
0%
#882000
1$
1/
0&
12
1-
1%
#884000
1#
0$
11
0/
1&
02
0-
0%
#886000
1$
1/
0&
#888000
1"
0#
0$
1.
01
0/
1&
12
1-
1%
#890000
1$
1/
0&
#892000
1#
0$
11
0/
1&
02
0-
0%
#894000
1$
1/
0&
#896000
0!
0"
0#
0$
00
0.
01
0/
1&
#898000
1$
1/
0&
12
1-
1%
#900000
1#
0$
11
0/
1&
02
0-
0%
#902000
1$
1/
0&
#904000
1"
0#
0$
1.
01
0/
1&
#906000
1$
1/
0&
12
1-
1%
#908000
1#
0$
11
0/
1&
#910000
1$
1/
0&
#912000
1!
0"
0#
0$
10
0.
01
0/
1&
02
0-
0%
#914000
1$
1/
0&
12
1-
1%
#916000
1#
0$
11
0/
1&
02
0-
0%
#918000
1$
1/
0&
#920000
1"
0#
0$
1.
01
0/
1&
12
1-
1%
#922000
1$
1/
0&
#924000
1#
0$
11
0/
1&
02
0-
0%
#926000
1$
1/
0&
#928000
0!
0"
0#
0$
00
0.
01
0/
1&
#930000
1$
1/
0&
12
1-
1%
#932000
1#
0$
11
0/
1&
02
0-
0%
#934000
1$
1/
0&
#936000
1"
0#
0$
1.
01
0/
1&
#938000
1$
1/
0&
12
1-
1%
#940000
1#
0$
11
0/
1&
#942000
1$
1/
0&
#944000
1!
0"
0#
0$
10
0.
01
0/
1&
02
0-
0%
#946000
1$
1/
0&
12
1-
1%
#948000
1#
0$
11
0/
1&
02
0-
0%
#950000
1$
1/
0&
#952000
1"
0#
0$
1.
01
0/
1&
12
1-
1%
#954000
1$
1/
0&
#956000
1#
0$
11
0/
1&
02
0-
0%
#958000
1$
1/
0&
#960000
0!
0"
0#
0$
00
0.
01
0/
1&
#962000
1$
1/
0&
12
1-
1%
#964000
1#
0$
11
0/
1&
02
0-
0%
#966000
1$
1/
0&
#968000
1"
0#
0$
1.
01
0/
1&
#970000
1$
1/
0&
12
1-
1%
#972000
1#
0$
11
0/
1&
#974000
1$
1/
0&
#976000
1!
0"
0#
0$
10
0.
01
0/
1&
02
0-
0%
#978000
1$
1/
0&
12
1-
1%
#980000
1#
0$
11
0/
1&
02
0-
0%
#982000
1$
1/
0&
#984000
1"
0#
0$
1.
01
0/
1&
12
1-
1%
#986000
1$
1/
0&
#988000
1#
0$
11
0/
1&
02
0-
0%
#990000
1$
1/
0&
#992000
0!
0"
0#
0$
00
0.
01
0/
1&
#994000
1$
1/
0&
12
1-
1%
#996000
1#
0$
11
0/
1&
02
0-
0%
#998000
1$
1/
0&
